%YAML 1.1
%TAG !u! tag:unity3d.com,2011:
--- !u!60 &4685658827155072492
PolygonCollider2D:
  m_ObjectHideFlags: 0
  m_CorrespondingSourceObject: {fileID: 0}
  m_PrefabInstance: {fileID: 0}
  m_PrefabAsset: {fileID: 0}
  m_GameObject: {fileID: 1968459748379143836}
  m_Enabled: 1
  m_Density: 1
  m_Material: {fileID: 0}
  m_IsTrigger: 0
  m_UsedByEffector: 0
  m_UsedByComposite: 0
  m_Offset: {x: 0, y: 0}
  m_SpriteTilingProperty:
    border: {x: 0, y: 0, z: 0, w: 0}
    pivot: {x: 0.5, y: 0.5}
    oldSize: {x: 1, y: 1}
    newSize: {x: 1, y: 1}
    adaptiveTilingThreshold: 0.5
    drawMode: 0
    adaptiveTiling: 0
  m_AutoTiling: 0
  m_Points:
    m_Paths:
    - - {x: -0.30859375, y: 0.0390625}
      - {x: -0.5, y: 0.03515625}
      - {x: -0.5, y: -0.5}
      - {x: 0.5, y: -0.5}
      - {x: 0.5, y: 0.0390625}
--- !u!1001 &3882455104514177996
PrefabInstance:
  m_ObjectHideFlags: 0
  serializedVersion: 2
  m_Modification:
    m_TransformParent: {fileID: 0}
    m_Modifications:
    - target: {fileID: 3364224032067229008, guid: f740e4ecde6354e5fb4c0d82c7bf4919,
        type: 3}
      propertyPath: m_Name
      value: tile (2)
      objectReference: {fileID: 0}
    - target: {fileID: 3364224032067229010, guid: f740e4ecde6354e5fb4c0d82c7bf4919,
        type: 3}
      propertyPath: m_Sprite
      value: 
      objectReference: {fileID: 21300000, guid: 32ccee85616df47f197560887c1d947a,
        type: 3}
    - target: {fileID: 3364224032067229013, guid: f740e4ecde6354e5fb4c0d82c7bf4919,
        type: 3}
      propertyPath: m_LocalPosition.x
      value: 2
      objectReference: {fileID: 0}
    - target: {fileID: 3364224032067229013, guid: f740e4ecde6354e5fb4c0d82c7bf4919,
        type: 3}
      propertyPath: m_LocalPosition.y
      value: 1
      objectReference: {fileID: 0}
    - target: {fileID: 3364224032067229013, guid: f740e4ecde6354e5fb4c0d82c7bf4919,
        type: 3}
      propertyPath: m_LocalPosition.z
      value: 0
      objectReference: {fileID: 0}
    - target: {fileID: 3364224032067229013, guid: f740e4ecde6354e5fb4c0d82c7bf4919,
        type: 3}
      propertyPath: m_LocalRotation.x
      value: -0
      objectReference: {fileID: 0}
    - target: {fileID: 3364224032067229013, guid: f740e4ecde6354e5fb4c0d82c7bf4919,
        type: 3}
      propertyPath: m_LocalRotation.y
      value: -0
      objectReference: {fileID: 0}
    - target: {fileID: 3364224032067229013, guid: f740e4ecde6354e5fb4c0d82c7bf4919,
        type: 3}
      propertyPath: m_LocalRotation.z
      value: -0
      objectReference: {fileID: 0}
    - target: {fileID: 3364224032067229013, guid: f740e4ecde6354e5fb4c0d82c7bf4919,
        type: 3}
      propertyPath: m_LocalRotation.w
      value: 1
      objectReference: {fileID: 0}
    - target: {fileID: 3364224032067229013, guid: f740e4ecde6354e5fb4c0d82c7bf4919,
        type: 3}
      propertyPath: m_RootOrder
      value: 0
      objectReference: {fileID: 0}
    - target: {fileID: 3364224032067229013, guid: f740e4ecde6354e5fb4c0d82c7bf4919,
        type: 3}
      propertyPath: m_LocalEulerAnglesHint.x
      value: 0
      objectReference: {fileID: 0}
    - target: {fileID: 3364224032067229013, guid: f740e4ecde6354e5fb4c0d82c7bf4919,
        type: 3}
      propertyPath: m_LocalEulerAnglesHint.y
      value: 0
      objectReference: {fileID: 0}
    - target: {fileID: 3364224032067229013, guid: f740e4ecde6354e5fb4c0d82c7bf4919,
        type: 3}
      propertyPath: m_LocalEulerAnglesHint.z
      value: 0
      objectReference: {fileID: 0}
    m_RemovedComponents:
    - {fileID: 3364224032067229011, guid: f740e4ecde6354e5fb4c0d82c7bf4919, type: 3}
  m_SourcePrefab: {fileID: 100100000, guid: f740e4ecde6354e5fb4c0d82c7bf4919, type: 3}
--- !u!1 &1968459748379143836 stripped
GameObject:
  m_CorrespondingSourceObject: {fileID: 3364224032067229008, guid: f740e4ecde6354e5fb4c0d82c7bf4919,
    type: 3}
  m_PrefabInstance: {fileID: 3882455104514177996}
  m_PrefabAsset: {fileID: 0}
