%YAML 1.1
%TAG !u! tag:unity3d.com,2011:
--- !u!1 &5011910465548478092
GameObject:
  m_ObjectHideFlags: 0
  m_CorrespondingSourceObject: {fileID: 0}
  m_PrefabInstance: {fileID: 0}
  m_PrefabAsset: {fileID: 0}
  serializedVersion: 6
  m_Component:
  - component: {fileID: 5011910465548478091}
  - component: {fileID: 5011910465548478090}
  m_Layer: 0
  m_Name: TerrainSpawner
  m_TagString: Untagged
  m_Icon: {fileID: 5721338939258241955, guid: 0000000000000000d000000000000000, type: 0}
  m_NavMeshLayer: 0
  m_StaticEditorFlags: 0
  m_IsActive: 1
--- !u!4 &5011910465548478091
Transform:
  m_ObjectHideFlags: 0
  m_CorrespondingSourceObject: {fileID: 0}
  m_PrefabInstance: {fileID: 0}
  m_PrefabAsset: {fileID: 0}
  m_GameObject: {fileID: 5011910465548478092}
  m_LocalRotation: {x: -0, y: -0, z: -0, w: 1}
  m_LocalPosition: {x: 15, y: 0, z: 10}
  m_LocalScale: {x: 1, y: 1, z: 1}
  m_Children: []
  m_Father: {fileID: 0}
  m_RootOrder: 0
  m_LocalEulerAnglesHint: {x: 0, y: 0, z: 0}
--- !u!114 &5011910465548478090
MonoBehaviour:
  m_ObjectHideFlags: 0
  m_CorrespondingSourceObject: {fileID: 0}
  m_PrefabInstance: {fileID: 0}
  m_PrefabAsset: {fileID: 0}
  m_GameObject: {fileID: 5011910465548478092}
  m_Enabled: 1
  m_EditorHideFlags: 0
  m_Script: {fileID: 11500000, guid: f765a2c6f908b4ebfa31088ade316f93, type: 3}
  m_Name: 
  m_EditorClassIdentifier: 
  BikeStartTile: {fileID: 9196569363903434107, guid: 230e0ac7828604741ab332c6d1fd83a0,
    type: 3}
  BikeTiles:
  - {fileID: 9196569363903434107, guid: dc5dfa593539c436aa97d7e5bed157a9, type: 3}
  - {fileID: 9196569363903434107, guid: b795750dfc2fe451fb9f9837c05b889e, type: 3}
  - {fileID: 9196569363903434107, guid: 989f573a8c29a469c80cc8bc34aa565a, type: 3}
  PlaneStartTile: {fileID: 9196569363903434107, guid: 230e0ac7828604741ab332c6d1fd83a0,
    type: 3}
  PlaneTiles:
  - {fileID: 9196569363903434107, guid: dc5dfa593539c436aa97d7e5bed157a9, type: 3}
  - {fileID: 9196569363903434107, guid: b795750dfc2fe451fb9f9837c05b889e, type: 3}
  - {fileID: 9196569363903434107, guid: 989f573a8c29a469c80cc8bc34aa565a, type: 3}
  RocketStartTile: {fileID: 9196569363903434107, guid: 230e0ac7828604741ab332c6d1fd83a0,
    type: 3}
  RocketTiles:
  - {fileID: 9196569363903434107, guid: dc5dfa593539c436aa97d7e5bed157a9, type: 3}
  - {fileID: 9196569363903434107, guid: b795750dfc2fe451fb9f9837c05b889e, type: 3}
  - {fileID: 9196569363903434107, guid: 989f573a8c29a469c80cc8bc34aa565a, type: 3}
  StartSpawnRelativeX: -15
  LevelSize: 40
  SpawnYPos: 0
